ex01                                                                                                                    PAGE 1
                         1
                         2     ;--------------------------------------------------------------------------------------
                         3
  0080                   4             DISPLAY EQU P0
                         5     ;--------------------------------------------------------------------------------------
                         6
                         7             ORG 0000h
                         8
                         9     INICIO:
                        10             ;0
0000 758003             11             MOV DISPLAY, #00000011b
                        12             REPT 5
                        13             CALL DELAY
                        14 +1          ENDM
0003 1201CA             15 +1                  CALL    delay
0006 1201CA             16 +1                  CALL    delay
0009 1201CA             17 +1                  CALL    delay
000C 1201CA             18 +1                  CALL    delay
000F 1201CA             19 +1                  CALL    delay
                        20
                        21             ;1
0012 75809F             22             MOV DISPLAY, #10011111b
                        23             REPT 5
                        24             CALL DELAY
                        25 +1          ENDM
0015 1201CA             26 +1                  CALL    delay
0018 1201CA             27 +1                  CALL    delay
001B 1201CA             28 +1                  CALL    delay
001E 1201CA             29 +1                  CALL    delay
0021 1201CA             30 +1                  CALL    delay
                        31
                        32             ;2
0024 758025             33             MOV DISPLAY, #00100101b
                        34             REPT 5
                        35             CALL DELAY
                        36 +1          ENDM
0027 1201CA             37 +1                  CALL    delay
002A 1201CA             38 +1                  CALL    delay
002D 1201CA             39 +1                  CALL    delay
0030 1201CA             40 +1                  CALL    delay
0033 1201CA             41 +1                  CALL    delay
                        42
                        43             ;3
0036 75800D             44             MOV DISPLAY, #00001101b
                        45             REPT 5
                        46             CALL DELAY
                        47 +1          ENDM
0039 1201CA             48 +1                  CALL    delay
003C 1201CA             49 +1                  CALL    delay
003F 1201CA             50 +1                  CALL    delay
0042 1201CA             51 +1                  CALL    delay
0045 1201CA             52 +1                  CALL    delay
                        53
                        54             ;4
0048 758099             55             MOV DISPLAY, #10011001b
                        56             REPT 5
                        57             CALL DELAY
                        58 +1          ENDM
004B 1201CA             59 +1                  CALL    delay
004E 1201CA             60 +1                  CALL    delay
0051 1201CA             61 +1                  CALL    delay
0054 1201CA             62 +1                  CALL    delay
0057 1201CA             63 +1                  CALL    delay
                        64
                        65             ;5
005A 758049             66             MOV DISPLAY, #01001001b
                        67             REPT 5
                        68             CALL DELAY
                        69 +1          ENDM
005D 1201CA             70 +1                  CALL    delay
0060 1201CA             71 +1                  CALL    delay
0063 1201CA             72 +1                  CALL    delay
0066 1201CA             73 +1                  CALL    delay
0069 1201CA             74 +1                  CALL    delay
                        75
                        76             ;6
006C 758041             77             MOV DISPLAY, #01000001b
                        78             REPT 5
                        79             CALL DELAY
                        80 +1          ENDM
006F 1201CA             81 +1                  CALL    delay
0072 1201CA             82 +1                  CALL    delay
0075 1201CA             83 +1                  CALL    delay
0078 1201CA             84 +1                  CALL    delay
007B 1201CA             85 +1                  CALL    delay
                        86
                        87             ;7
007E 75801F             88             MOV DISPLAY, #00011111b
                        89             REPT 5
                        90             CALL DELAY
                        91 +1          ENDM
0081 1201CA             92 +1                  CALL    delay
0084 1201CA             93 +1                  CALL    delay
0087 1201CA             94 +1                  CALL    delay
008A 1201CA             95 +1                  CALL    delay
008D 1201CA             96 +1                  CALL    delay
                        97
                        98             ;8
0090 758001             99             MOV DISPLAY, #00000001b
                       100             REPT 5
                       101             CALL DELAY
                       102 +1          ENDM
0093 1201CA            103 +1                  CALL    delay
0096 1201CA            104 +1                  CALL    delay
0099 1201CA            105 +1                  CALL    delay
009C 1201CA            106 +1                  CALL    delay
009F 1201CA            107 +1                  CALL    delay
                       108
                       109             ;9
00A2 758019            110             MOV DISPLAY, #00011001b
                       111             REPT 5
                       112             CALL DELAY
                       113 +1          ENDM
00A5 1201CA            114 +1                  CALL    delay
00A8 1201CA            115 +1                  CALL    delay
00AB 1201CA            116 +1                  CALL    delay
00AE 1201CA            117 +1                  CALL    delay
00B1 1201CA            118 +1                  CALL    delay
                       119
                       120             ;PONTO
00B4 7580FE            121             MOV DISPLAY,#11111110b
                       122             REPT 15
                       123             CALL DELAY
                       124 +1          ENDM
00B7 1201CA            125 +1                  CALL    delay
00BA 1201CA            126 +1                  CALL    delay
00BD 1201CA            127 +1                  CALL    delay
00C0 1201CA            128 +1                  CALL    delay
00C3 1201CA            129 +1                  CALL    delay
00C6 1201CA            130 +1                  CALL    delay
00C9 1201CA            131 +1                  CALL    delay
00CC 1201CA            132 +1                  CALL    delay
00CF 1201CA            133 +1                  CALL    delay
00D2 1201CA            134 +1                  CALL    delay
00D5 1201CA            135 +1                  CALL    delay
00D8 1201CA            136 +1                  CALL    delay
00DB 1201CA            137 +1                  CALL    delay
00DE 1201CA            138 +1                  CALL    delay
00E1 1201CA            139 +1                  CALL    delay
                       140
                       141             ;9
00E4 758019            142             MOV DISPLAY, #00011001b
                       143             REPT 5
                       144             CALL DELAY
                       145 +1          ENDM
00E7 1201CA            146 +1                  CALL    delay
00EA 1201CA            147 +1                  CALL    delay
00ED 1201CA            148 +1                  CALL    delay
00F0 1201CA            149 +1                  CALL    delay
00F3 1201CA            150 +1                  CALL    delay
                       151
                       152             ;8
00F6 758001            153             MOV DISPLAY, #00000001b
                       154             REPT 5
                       155             CALL DELAY
                       156 +1          ENDM
00F9 1201CA            157 +1                  CALL    delay
00FC 1201CA            158 +1                  CALL    delay
00FF 1201CA            159 +1                  CALL    delay
0102 1201CA            160 +1                  CALL    delay
0105 1201CA            161 +1                  CALL    delay
                       162
                       163             ;7
0108 75801F            164             MOV DISPLAY, #00011111b
                       165             REPT 5
                       166             CALL DELAY
                       167 +1          ENDM
010B 1201CA            168 +1                  CALL    delay
010E 1201CA            169 +1                  CALL    delay
0111 1201CA            170 +1                  CALL    delay
0114 1201CA            171 +1                  CALL    delay
0117 1201CA            172 +1                  CALL    delay
                       173
                       174             ;6
011A 758041            175             MOV DISPLAY, #01000001b
                       176             REPT 5
                       177             CALL DELAY
                       178 +1          ENDM
011D 1201CA            179 +1                  CALL    delay
0120 1201CA            180 +1                  CALL    delay
0123 1201CA            181 +1                  CALL    delay
0126 1201CA            182 +1                  CALL    delay
0129 1201CA            183 +1                  CALL    delay
                       184
                       185             ;5
012C 758049            186             MOV DISPLAY, #01001001b
                       187             REPT 5
                       188             CALL DELAY
                       189 +1          ENDM
012F 1201CA            190 +1                  CALL    delay
0132 1201CA            191 +1                  CALL    delay
0135 1201CA            192 +1                  CALL    delay
0138 1201CA            193 +1                  CALL    delay
013B 1201CA            194 +1                  CALL    delay
                       195
                       196             ;4
013E 758099            197             MOV DISPLAY, #10011001b
                       198             REPT 5
                       199             CALL DELAY
                       200 +1          ENDM
0141 1201CA            201 +1                  CALL    delay
0144 1201CA            202 +1                  CALL    delay
0147 1201CA            203 +1                  CALL    delay
014A 1201CA            204 +1                  CALL    delay
014D 1201CA            205 +1                  CALL    delay
                       206
                       207             ;3
0150 75800D            208             MOV DISPLAY, #00001101b
                       209             REPT 5
                       210             CALL DELAY
                       211 +1          ENDM
0153 1201CA            212 +1                  CALL    delay
0156 1201CA            213 +1                  CALL    delay
0159 1201CA            214 +1                  CALL    delay
015C 1201CA            215 +1                  CALL    delay
015F 1201CA            216 +1                  CALL    delay
                       217
                       218             ;2
0162 758025            219             MOV DISPLAY, #00100101b
                       220             REPT 5
                       221             CALL DELAY
                       222 +1          ENDM
0165 1201CA            223 +1                  CALL    delay
0168 1201CA            224 +1                  CALL    delay
016B 1201CA            225 +1                  CALL    delay
016E 1201CA            226 +1                  CALL    delay
0171 1201CA            227 +1                  CALL    delay
                       228
                       229             ;1
0174 75809F            230             MOV DISPLAY, #10011111b
                       231             REPT 5
                       232             CALL DELAY
                       233 +1          ENDM
0177 1201CA            234 +1                  CALL    delay
017A 1201CA            235 +1                  CALL    delay
017D 1201CA            236 +1                  CALL    delay
0180 1201CA            237 +1                  CALL    delay
0183 1201CA            238 +1                  CALL    delay
                       239
                       240             ;0
0186 758003            241             MOV DISPLAY, #00000011b
                       242             REPT 5
                       243             CALL DELAY
                       244 +1          ENDM
0189 1201CA            245 +1                  CALL    delay
018C 1201CA            246 +1                  CALL    delay
018F 1201CA            247 +1                  CALL    delay
0192 1201CA            248 +1                  CALL    delay
0195 1201CA            249 +1                  CALL    delay
                       250
                       251             ;PONTO
0198 7580FE            252             MOV DISPLAY,#11111110b
                       253             REPT 15
                       254             CALL DELAY
                       255 +1          ENDM
019B 1201CA            256 +1                  CALL    delay
019E 1201CA            257 +1                  CALL    delay
01A1 1201CA            258 +1                  CALL    delay
01A4 1201CA            259 +1                  CALL    delay
01A7 1201CA            260 +1                  CALL    delay
01AA 1201CA            261 +1                  CALL    delay
01AD 1201CA            262 +1                  CALL    delay
01B0 1201CA            263 +1                  CALL    delay
01B3 1201CA            264 +1                  CALL    delay
01B6 1201CA            265 +1                  CALL    delay
01B9 1201CA            266 +1                  CALL    delay
01BC 1201CA            267 +1                  CALL    delay
01BF 1201CA            268 +1                  CALL    delay
01C2 1201CA            269 +1                  CALL    delay
01C5 1201CA            270 +1                  CALL    delay
                       271
01C8 0100              272             JMP INICIO
                       273
                       274
                       275     ;_______________SUBROTINAS_____________________________________________________________
                       276     DELAY:
01CA D2CA              277             SETB TR2
01CC 30CFFD            278             JNB TF2, $
01CF C2CA              279             CLR TR2
01D1 C2CE              280             CLR EXF2
01D3 C2CF              281             CLR TF2
01D5 22                282             RET
                       283
                       284             END
ASSEMBLY COMPLETE, NO ERRORS FOUND, NO WARNINGS


SYMBOL TABLE:
??MCU_8051_IDE . . . . . . . . . . .  N  NUMB  8051H  NOT USED
??VERSION. . . . . . . . . . . . . .  N  NUMB  0147H  NOT USED
AC . . . . . . . . . . . . . . . . .  B  ADDR  00D6H  NOT USED
ACC. . . . . . . . . . . . . . . . .  D  ADDR  00E0H  NOT USED
ACSR . . . . . . . . . . . . . . . .  D  ADDR  0097H  NOT USED
ADCF . . . . . . . . . . . . . . . .  D  ADDR  00F6H  NOT USED
ADCLK. . . . . . . . . . . . . . . .  D  ADDR  00F2H  NOT USED
ADCON. . . . . . . . . . . . . . . .  D  ADDR  00F3H  NOT USED
ADDH . . . . . . . . . . . . . . . .  D  ADDR  00F5H  NOT USED
ADDL . . . . . . . . . . . . . . . .  D  ADDR  00F4H  NOT USED
AUXR . . . . . . . . . . . . . . . .  D  ADDR  008EH  NOT USED
AUXR1. . . . . . . . . . . . . . . .  D  ADDR  00A2H  NOT USED
B. . . . . . . . . . . . . . . . . .  D  ADDR  00F0H  NOT USED
BDRCON . . . . . . . . . . . . . . .  D  ADDR  009BH  NOT USED
BDRCON_1 . . . . . . . . . . . . . .  D  ADDR  009CH  NOT USED
BRL. . . . . . . . . . . . . . . . .  D  ADDR  009AH  NOT USED
CCAP0H . . . . . . . . . . . . . . .  D  ADDR  00FAH  NOT USED
CCAP0L . . . . . . . . . . . . . . .  D  ADDR  00EAH  NOT USED
CCAP1H . . . . . . . . . . . . . . .  D  ADDR  00FBH  NOT USED
CCAP1L . . . . . . . . . . . . . . .  D  ADDR  00EBH  NOT USED
CCAP2H . . . . . . . . . . . . . . .  D  ADDR  00FCH  NOT USED
CCAP3H . . . . . . . . . . . . . . .  D  ADDR  00FDH  NOT USED
CCAP4H . . . . . . . . . . . . . . .  D  ADDR  00FEH  NOT USED
CCAPL2H. . . . . . . . . . . . . . .  D  ADDR  00FCH  NOT USED
CCAPL2L. . . . . . . . . . . . . . .  D  ADDR  00ECH  NOT USED
CCAPL3H. . . . . . . . . . . . . . .  D  ADDR  00FDH  NOT USED
CCAPL3L. . . . . . . . . . . . . . .  D  ADDR  00EDH  NOT USED
CCAPL4H. . . . . . . . . . . . . . .  D  ADDR  00FEH  NOT USED
CCAPL4L. . . . . . . . . . . . . . .  D  ADDR  00EEH  NOT USED
CCAPM0 . . . . . . . . . . . . . . .  D  ADDR  00DAH  NOT USED
CCAPM1 . . . . . . . . . . . . . . .  D  ADDR  00DBH  NOT USED
CCAPM2 . . . . . . . . . . . . . . .  D  ADDR  00DCH  NOT USED
CCAPM3 . . . . . . . . . . . . . . .  D  ADDR  00DDH  NOT USED
CCAPM4 . . . . . . . . . . . . . . .  D  ADDR  00DEH  NOT USED
CCF0 . . . . . . . . . . . . . . . .  B  ADDR  00D8H  NOT USED
CCF1 . . . . . . . . . . . . . . . .  B  ADDR  00D9H  NOT USED
CCF2 . . . . . . . . . . . . . . . .  B  ADDR  00DAH  NOT USED
CCF3 . . . . . . . . . . . . . . . .  B  ADDR  00DBH  NOT USED
CCF4 . . . . . . . . . . . . . . . .  B  ADDR  00DCH  NOT USED
CCON . . . . . . . . . . . . . . . .  D  ADDR  00D8H  NOT USED
CFINT. . . . . . . . . . . . . . . .  C  ADDR  0033H  NOT USED
CH . . . . . . . . . . . . . . . . .  D  ADDR  00F9H  NOT USED
CKCON. . . . . . . . . . . . . . . .  D  ADDR  008FH  NOT USED
CKCON0 . . . . . . . . . . . . . . .  D  ADDR  008FH  NOT USED
CKRL . . . . . . . . . . . . . . . .  D  ADDR  0097H  NOT USED
CKSEL. . . . . . . . . . . . . . . .  D  ADDR  0085H  NOT USED
CL . . . . . . . . . . . . . . . . .  D  ADDR  00E9H  NOT USED
CLKREG . . . . . . . . . . . . . . .  D  ADDR  008FH  NOT USED
CMOD . . . . . . . . . . . . . . . .  D  ADDR  00D9H  NOT USED
CPRL2. . . . . . . . . . . . . . . .  B  ADDR  00C8H  NOT USED
CR . . . . . . . . . . . . . . . . .  B  ADDR  00DEH  NOT USED
CT2. . . . . . . . . . . . . . . . .  B  ADDR  00C9H  NOT USED
CY . . . . . . . . . . . . . . . . .  B  ADDR  00D7H  NOT USED
DELAY. . . . . . . . . . . . . . . .  C  ADDR  01CAH
DISPLAY. . . . . . . . . . . . . . .  N  NUMB  0080H
DP0H . . . . . . . . . . . . . . . .  D  ADDR  0083H  NOT USED
DP0L . . . . . . . . . . . . . . . .  D  ADDR  0082H  NOT USED
DP1H . . . . . . . . . . . . . . . .  D  ADDR  0085H  NOT USED
DP1L . . . . . . . . . . . . . . . .  D  ADDR  0084H  NOT USED
DPH. . . . . . . . . . . . . . . . .  D  ADDR  0083H  NOT USED
DPL. . . . . . . . . . . . . . . . .  D  ADDR  0082H  NOT USED
EA . . . . . . . . . . . . . . . . .  B  ADDR  00AFH  NOT USED
EC . . . . . . . . . . . . . . . . .  B  ADDR  00AEH  NOT USED
EECON. . . . . . . . . . . . . . . .  D  ADDR  0096H  NOT USED
ES . . . . . . . . . . . . . . . . .  B  ADDR  00ACH  NOT USED
ET0. . . . . . . . . . . . . . . . .  B  ADDR  00A9H  NOT USED
ET1. . . . . . . . . . . . . . . . .  B  ADDR  00ABH  NOT USED
ET2. . . . . . . . . . . . . . . . .  B  ADDR  00ADH  NOT USED
EX0. . . . . . . . . . . . . . . . .  B  ADDR  00A8H  NOT USED
EX1. . . . . . . . . . . . . . . . .  B  ADDR  00AAH  NOT USED
EXEN2. . . . . . . . . . . . . . . .  B  ADDR  00CBH  NOT USED
EXF2 . . . . . . . . . . . . . . . .  B  ADDR  00CEH
EXTI0. . . . . . . . . . . . . . . .  C  ADDR  0003H  NOT USED
EXTI1. . . . . . . . . . . . . . . .  C  ADDR  0013H  NOT USED
F0 . . . . . . . . . . . . . . . . .  B  ADDR  00D5H  NOT USED
FE . . . . . . . . . . . . . . . . .  B  ADDR  009FH  NOT USED
IE . . . . . . . . . . . . . . . . .  D  ADDR  00A8H  NOT USED
IE0. . . . . . . . . . . . . . . . .  B  ADDR  0089H  NOT USED
IE1. . . . . . . . . . . . . . . . .  B  ADDR  008BH  NOT USED
INICIO . . . . . . . . . . . . . . .  C  ADDR  0000H
INT0 . . . . . . . . . . . . . . . .  B  ADDR  00B2H  NOT USED
INT1 . . . . . . . . . . . . . . . .  B  ADDR  00B3H  NOT USED
IP . . . . . . . . . . . . . . . . .  D  ADDR  00B8H  NOT USED
IPH. . . . . . . . . . . . . . . . .  D  ADDR  00B7H  NOT USED
IPH0 . . . . . . . . . . . . . . . .  D  ADDR  00B7H  NOT USED
IPH1 . . . . . . . . . . . . . . . .  D  ADDR  00B3H  NOT USED
IPL0 . . . . . . . . . . . . . . . .  D  ADDR  00B8H  NOT USED
IPL1 . . . . . . . . . . . . . . . .  D  ADDR  00B2H  NOT USED
IT0. . . . . . . . . . . . . . . . .  B  ADDR  0088H  NOT USED
IT1. . . . . . . . . . . . . . . . .  B  ADDR  008AH  NOT USED
KBE. . . . . . . . . . . . . . . . .  D  ADDR  009DH  NOT USED
KBF. . . . . . . . . . . . . . . . .  D  ADDR  009EH  NOT USED
KBLS . . . . . . . . . . . . . . . .  D  ADDR  009CH  NOT USED
OSCCON . . . . . . . . . . . . . . .  D  ADDR  0086H  NOT USED
OV . . . . . . . . . . . . . . . . .  B  ADDR  00D2H  NOT USED
P. . . . . . . . . . . . . . . . . .  B  ADDR  00D0H  NOT USED
P0 . . . . . . . . . . . . . . . . .  D  ADDR  0080H  NOT USED
P1 . . . . . . . . . . . . . . . . .  D  ADDR  0090H  NOT USED
P1M1 . . . . . . . . . . . . . . . .  D  ADDR  00D4H  NOT USED
P1M2 . . . . . . . . . . . . . . . .  D  ADDR  00E2H  NOT USED
P2 . . . . . . . . . . . . . . . . .  D  ADDR  00A0H  NOT USED
P3 . . . . . . . . . . . . . . . . .  D  ADDR  00B0H  NOT USED
P3M1 . . . . . . . . . . . . . . . .  D  ADDR  00D5H  NOT USED
P3M2 . . . . . . . . . . . . . . . .  D  ADDR  00E3H  NOT USED
P4 . . . . . . . . . . . . . . . . .  D  ADDR  00C0H  NOT USED
P4M1 . . . . . . . . . . . . . . . .  D  ADDR  00D6H  NOT USED
P4M2 . . . . . . . . . . . . . . . .  D  ADDR  00E4H  NOT USED
P5 . . . . . . . . . . . . . . . . .  D  ADDR  00E8H  NOT USED
PC . . . . . . . . . . . . . . . . .  B  ADDR  00BEH  NOT USED
PCON . . . . . . . . . . . . . . . .  D  ADDR  0087H  NOT USED
PPCL . . . . . . . . . . . . . . . .  B  ADDR  00BEH  NOT USED
PS . . . . . . . . . . . . . . . . .  B  ADDR  00BCH  NOT USED
PSL. . . . . . . . . . . . . . . . .  B  ADDR  00BCH  NOT USED
PSW. . . . . . . . . . . . . . . . .  D  ADDR  00D0H  NOT USED
PT0. . . . . . . . . . . . . . . . .  B  ADDR  00B9H  NOT USED
PT0L . . . . . . . . . . . . . . . .  B  ADDR  00B9H  NOT USED
PT1. . . . . . . . . . . . . . . . .  B  ADDR  00BBH  NOT USED
PT1L . . . . . . . . . . . . . . . .  B  ADDR  00BBH  NOT USED
PT2. . . . . . . . . . . . . . . . .  B  ADDR  00BDH  NOT USED
PT2L . . . . . . . . . . . . . . . .  B  ADDR  00BDH  NOT USED
PX0. . . . . . . . . . . . . . . . .  B  ADDR  00B8H  NOT USED
PX0L . . . . . . . . . . . . . . . .  B  ADDR  00B8H  NOT USED
PX1. . . . . . . . . . . . . . . . .  B  ADDR  00BAH  NOT USED
PX1L . . . . . . . . . . . . . . . .  B  ADDR  00BAH  NOT USED
RB8. . . . . . . . . . . . . . . . .  B  ADDR  009AH  NOT USED
RCAP2H . . . . . . . . . . . . . . .  D  ADDR  00CBH  NOT USED
RCAP2L . . . . . . . . . . . . . . .  D  ADDR  00CAH  NOT USED
RCLK . . . . . . . . . . . . . . . .  B  ADDR  00CDH  NOT USED
RD . . . . . . . . . . . . . . . . .  B  ADDR  00B7H  NOT USED
REN. . . . . . . . . . . . . . . . .  B  ADDR  009CH  NOT USED
RESET. . . . . . . . . . . . . . . .  C  ADDR  0000H  NOT USED
RI . . . . . . . . . . . . . . . . .  B  ADDR  0098H  NOT USED
RS0. . . . . . . . . . . . . . . . .  B  ADDR  00D3H  NOT USED
RS1. . . . . . . . . . . . . . . . .  B  ADDR  00D4H  NOT USED
RXD. . . . . . . . . . . . . . . . .  B  ADDR  00B0H  NOT USED
SADDR. . . . . . . . . . . . . . . .  D  ADDR  00A9H  NOT USED
SADDR_0. . . . . . . . . . . . . . .  D  ADDR  00A9H  NOT USED
SADDR_1. . . . . . . . . . . . . . .  D  ADDR  00AAH  NOT USED
SADEN. . . . . . . . . . . . . . . .  D  ADDR  00B9H  NOT USED
SADEN_0. . . . . . . . . . . . . . .  D  ADDR  00B9H  NOT USED
SADEN_1. . . . . . . . . . . . . . .  D  ADDR  00BAH  NOT USED
SBUF . . . . . . . . . . . . . . . .  D  ADDR  0099H  NOT USED
SCON . . . . . . . . . . . . . . . .  D  ADDR  0098H  NOT USED
SINT . . . . . . . . . . . . . . . .  C  ADDR  0023H  NOT USED
SM0. . . . . . . . . . . . . . . . .  B  ADDR  009FH  NOT USED
SM1. . . . . . . . . . . . . . . . .  B  ADDR  009EH  NOT USED
SM2. . . . . . . . . . . . . . . . .  B  ADDR  009DH  NOT USED
SP . . . . . . . . . . . . . . . . .  D  ADDR  0081H  NOT USED
SPCON. . . . . . . . . . . . . . . .  D  ADDR  00C3H  NOT USED
SPCR . . . . . . . . . . . . . . . .  D  ADDR  00D5H  NOT USED
SPDAT. . . . . . . . . . . . . . . .  D  ADDR  00C5H  NOT USED
SPDR . . . . . . . . . . . . . . . .  D  ADDR  0086H  NOT USED
SPSR . . . . . . . . . . . . . . . .  D  ADDR  00AAH  NOT USED
SPSTA. . . . . . . . . . . . . . . .  D  ADDR  00C4H  NOT USED
T0 . . . . . . . . . . . . . . . . .  B  ADDR  00B4H  NOT USED
T1 . . . . . . . . . . . . . . . . .  B  ADDR  00B5H  NOT USED
T2CON. . . . . . . . . . . . . . . .  D  ADDR  00C8H  NOT USED
T2MOD. . . . . . . . . . . . . . . .  D  ADDR  00C9H  NOT USED
TB8. . . . . . . . . . . . . . . . .  B  ADDR  009BH  NOT USED
TCLK . . . . . . . . . . . . . . . .  B  ADDR  00CCH  NOT USED
TCON . . . . . . . . . . . . . . . .  D  ADDR  0088H  NOT USED
TF0. . . . . . . . . . . . . . . . .  B  ADDR  008DH  NOT USED
TF1. . . . . . . . . . . . . . . . .  B  ADDR  008FH  NOT USED
TF2. . . . . . . . . . . . . . . . .  B  ADDR  00CFH
TH0. . . . . . . . . . . . . . . . .  D  ADDR  008CH  NOT USED
TH1. . . . . . . . . . . . . . . . .  D  ADDR  008DH  NOT USED
TH2. . . . . . . . . . . . . . . . .  D  ADDR  00CDH  NOT USED
TI . . . . . . . . . . . . . . . . .  B  ADDR  0099H  NOT USED
TIMER0 . . . . . . . . . . . . . . .  C  ADDR  000BH  NOT USED
TIMER1 . . . . . . . . . . . . . . .  C  ADDR  001BH  NOT USED
TIMER2 . . . . . . . . . . . . . . .  C  ADDR  002BH  NOT USED
TL0. . . . . . . . . . . . . . . . .  D  ADDR  008AH  NOT USED
TL1. . . . . . . . . . . . . . . . .  D  ADDR  008BH  NOT USED
TL2. . . . . . . . . . . . . . . . .  D  ADDR  00CCH  NOT USED
TMOD . . . . . . . . . . . . . . . .  D  ADDR  0089H  NOT USED
TR0. . . . . . . . . . . . . . . . .  B  ADDR  008CH  NOT USED
TR1. . . . . . . . . . . . . . . . .  B  ADDR  008EH  NOT USED
TR2. . . . . . . . . . . . . . . . .  B  ADDR  00CAH
TXD. . . . . . . . . . . . . . . . .  B  ADDR  00B1H  NOT USED
WDTCON . . . . . . . . . . . . . . .  D  ADDR  00A7H  NOT USED
WDTPRG . . . . . . . . . . . . . . .  D  ADDR  00A7H  NOT USED
WDTRST . . . . . . . . . . . . . . .  D  ADDR  00A6H  NOT USED
WR . . . . . . . . . . . . . . . . .  B  ADDR  00B6H  NOT USED